<?xml version="1.0" standalone="no"?>
<!DOCTYPE svg PUBLIC "-//W3C//DTD SVG 20010904//EN"
 "http://www.w3.org/TR/2001/REC-SVG-20010904/DTD/svg10.dtd">
<svg version="1.0" xmlns="http://www.w3.org/2000/svg"
 width="492.000000pt" height="492.000000pt" viewBox="0 0 492.000000 492.000000"
 preserveAspectRatio="xMidYMid meet">
<metadata>
Created by potrace 1.11, written by Peter Selinger 2001-2013
</metadata>
<g transform="translate(0.000000,492.000000) scale(0.100000,-0.100000)"
fill="#000000" stroke="none">
<path d="M1565 4635 c-32 -14 -67 -45 -349 -300 -6 -5 -56 -50 -111 -100 -55
-49 -102 -92 -105 -95 -3 -3 -28 -26 -55 -51 l-50 -45 33 -87 34 -87 1498 0
1497 0 32 83 c17 46 31 86 31 89 0 4 -141 127 -312 275 -172 147 -322 276
-333 286 -48 44 -72 47 -405 47 l-317 0 -2 -100 -1 -100 296 0 297 0 82 -69
c45 -39 89 -76 96 -83 8 -7 61 -53 119 -102 58 -49 114 -97 125 -108 19 -17
-15 -18 -1210 -18 l-1230 0 40 38 c22 20 81 73 130 117 50 44 92 83 95 86 3 3
38 36 79 72 l75 67 268 0 268 0 0 100 0 100 -292 -1 c-223 0 -300 -4 -323 -14z"/>
<path d="M1485 3380 c-1 -3 -2 -94 -2 -202 0 -136 3 -198 11 -199 6 -1 162 -2
346 -3 l335 -1 2 -940 c1 -517 2 -946 2 -952 1 -10 57 -13 244 -13 l242 0 0
938 c-1 515 1 944 3 952 3 13 47 15 343 15 220 0 343 3 347 10 4 5 7 97 7 202
l0 193 -30 1 c-141 4 -1848 3 -1850 -1z"/>
<path d="M1003 1526 c-24 -8 -443 -326 -517 -391 -6 -6 -105 -85 -221 -175
-115 -91 -220 -174 -233 -185 l-23 -20 25 -70 c13 -38 27 -78 31 -88 7 -16
128 -17 2398 -15 l2390 3 31 87 31 86 -28 22 c-15 12 -33 27 -40 33 -6 7 -77
68 -157 137 -80 68 -183 158 -230 198 -47 41 -96 84 -110 96 -14 12 -91 78
-171 147 -83 72 -161 131 -180 137 -22 7 -216 10 -554 9 l-520 -2 -1 -97 -2
-98 32 -1 c17 0 244 -1 504 -1 l472 0 39 -32 c69 -56 601 -518 601 -522 0 -2
-946 -4 -2102 -4 l-2103 1 25 20 c14 11 34 28 45 37 11 10 38 31 60 47 22 17
46 36 55 42 46 38 251 199 340 268 57 44 119 94 138 110 l35 30 421 1 421 1 3
100 3 100 -438 0 c-293 0 -449 -4 -470 -11z"/>
</g>
</svg>
